…
### 5.2.4 Ejercicios{-#ejercicios-524} 


1.  Encuentra todos los vuelos que:

   1. Tuvieron un retraso de llegada de dos o más horas
 
<div class="solucion">
<h3>Solución</h3>


```r
filter(vuelos, atraso_llegada >= 120)
#> # A tibble: 10,200 × 19
#>    anio   mes   dia horario_salida salida_programada atraso_salida
#>   <int> <int> <int>          <int>             <int>         <dbl>
#> 1  2013     1     1            811               630           101
#> 2  2013     1     1            848              1835           853
#> 3  2013     1     1            957               733           144
#> 4  2013     1     1           1114               900           134
#> 5  2013     1     1           1505              1310           115
#> 6  2013     1     1           1525              1340           105
#> # … with 10,194 more rows, and 13 more variables: horario_llegada <int>,
#> #   llegada_programada <int>, atraso_llegada <dbl>, aerolinea <chr>,
#> #   vuelo <int>, codigo_cola <chr>, origen <chr>, destino <chr>,
#> #   tiempo_vuelo <dbl>, distancia <dbl>, hora <dbl>, minuto <dbl>,
#> #   fecha_hora <dttm>
```


</div>

   2. Volaron a Houston (`IAH` o` HOU`)
 
 <div class="solucion">
<h3>Solución</h3>


```r
#Opcion 1
filter(vuelos, destino %in% c("IAH", "HOU"))
#> # A tibble: 9,313 × 19
#>    anio   mes   dia horario_salida salida_programada atraso_salida
#>   <int> <int> <int>          <int>             <int>         <dbl>
#> 1  2013     1     1            517               515             2
#> 2  2013     1     1            533               529             4
#> 3  2013     1     1            623               627            -4
#> 4  2013     1     1            728               732            -4
#> 5  2013     1     1            739               739             0
#> 6  2013     1     1            908               908             0
#> # … with 9,307 more rows, and 13 more variables: horario_llegada <int>,
#> #   llegada_programada <int>, atraso_llegada <dbl>, aerolinea <chr>,
#> #   vuelo <int>, codigo_cola <chr>, origen <chr>, destino <chr>,
#> #   tiempo_vuelo <dbl>, distancia <dbl>, hora <dbl>, minuto <dbl>,
#> #   fecha_hora <dttm>

#Opción 2
filter(vuelos,destino == "IAH" | destino ==  "HOU" )
#> # A tibble: 9,313 × 19
#>    anio   mes   dia horario_salida salida_programada atraso_salida
#>   <int> <int> <int>          <int>             <int>         <dbl>
#> 1  2013     1     1            517               515             2
#> 2  2013     1     1            533               529             4
#> 3  2013     1     1            623               627            -4
#> 4  2013     1     1            728               732            -4
#> 5  2013     1     1            739               739             0
#> 6  2013     1     1            908               908             0
#> # … with 9,307 more rows, and 13 more variables: horario_llegada <int>,
#> #   llegada_programada <int>, atraso_llegada <dbl>, aerolinea <chr>,
#> #   vuelo <int>, codigo_cola <chr>, origen <chr>, destino <chr>,
#> #   tiempo_vuelo <dbl>, distancia <dbl>, hora <dbl>, minuto <dbl>,
#> #   fecha_hora <dttm>
```


</div>
   
   3. Fueron operados por United, American o Delta
  
<div class="solucion">
<h3>Solución</h3>

Los códigos de estas aerolíneas son `UA`, `AA` y `DL`.


```r
filter(vuelos, aerolinea %in% c("UA", "AA", "DL"))
#> # A tibble: 139,504 × 19
#>    anio   mes   dia horario_salida salida_programada atraso_salida
#>   <int> <int> <int>          <int>             <int>         <dbl>
#> 1  2013     1     1            517               515             2
#> 2  2013     1     1            533               529             4
#> 3  2013     1     1            542               540             2
#> 4  2013     1     1            554               600            -6
#> 5  2013     1     1            554               558            -4
#> 6  2013     1     1            558               600            -2
#> # … with 139,498 more rows, and 13 more variables: horario_llegada <int>,
#> #   llegada_programada <int>, atraso_llegada <dbl>, aerolinea <chr>,
#> #   vuelo <int>, codigo_cola <chr>, origen <chr>, destino <chr>,
#> #   tiempo_vuelo <dbl>, distancia <dbl>, hora <dbl>, minuto <dbl>,
#> #   fecha_hora <dttm>
```

</div>
 
   4. Partieron en el invierno del hemisferio sur (julio, agosto y septiembre)

<div class="solucion">
<h3>Solución</h3>


```r
filter(vuelos, mes %in% c(7, 8, 9))
#> # A tibble: 86,326 × 19
#>    anio   mes   dia horario_salida salida_programada atraso_salida
#>   <int> <int> <int>          <int>             <int>         <dbl>
#> 1  2013     7     1              1              2029           212
#> 2  2013     7     1              2              2359             3
#> 3  2013     7     1             29              2245           104
#> 4  2013     7     1             43              2130           193
#> 5  2013     7     1             44              2150           174
#> 6  2013     7     1             46              2051           235
#> # … with 86,320 more rows, and 13 more variables: horario_llegada <int>,
#> #   llegada_programada <int>, atraso_llegada <dbl>, aerolinea <chr>,
#> #   vuelo <int>, codigo_cola <chr>, origen <chr>, destino <chr>,
#> #   tiempo_vuelo <dbl>, distancia <dbl>, hora <dbl>, minuto <dbl>,
#> #   fecha_hora <dttm>
```

</div>

  
   5. Llegaron más de dos horas tarde, pero no salieron tarde

<div class="solucion">
<h3>Solución</h3>


```r
filter(vuelos, atraso_salida <= 0 & atraso_llegada > 120)
#> # A tibble: 29 × 19
#>    anio   mes   dia horario_salida salida_programada atraso_salida
#>   <int> <int> <int>          <int>             <int>         <dbl>
#> 1  2013     1    27           1419              1420            -1
#> 2  2013    10     7           1350              1350             0
#> 3  2013    10     7           1357              1359            -2
#> 4  2013    10    16            657               700            -3
#> 5  2013    11     1            658               700            -2
#> 6  2013     3    18           1844              1847            -3
#> # … with 23 more rows, and 13 more variables: horario_llegada <int>,
#> #   llegada_programada <int>, atraso_llegada <dbl>, aerolinea <chr>,
#> #   vuelo <int>, codigo_cola <chr>, origen <chr>, destino <chr>,
#> #   tiempo_vuelo <dbl>, distancia <dbl>, hora <dbl>, minuto <dbl>,
#> #   fecha_hora <dttm>
```


</div>
  
   6. Se retrasaron por lo menos una hora, pero repusieron más de 30 minutos en vuelo

<div class="solucion">
<h3>Solución</h3>

```r
filter(vuelos, atraso_salida >= 60 & atraso_salida - atraso_llegada > 30)
#> # A tibble: 1,844 × 19
#>    anio   mes   dia horario_salida salida_programada atraso_salida
#>   <int> <int> <int>          <int>             <int>         <dbl>
#> 1  2013     1     1           2205              1720           285
#> 2  2013     1     1           2326              2130           116
#> 3  2013     1     3           1503              1221           162
#> 4  2013     1     3           1839              1700            99
#> 5  2013     1     3           1850              1745            65
#> 6  2013     1     3           1941              1759           102
#> # … with 1,838 more rows, and 13 more variables: horario_llegada <int>,
#> #   llegada_programada <int>, atraso_llegada <dbl>, aerolinea <chr>,
#> #   vuelo <int>, codigo_cola <chr>, origen <chr>, destino <chr>,
#> #   tiempo_vuelo <dbl>, distancia <dbl>, hora <dbl>, minuto <dbl>,
#> #   fecha_hora <dttm>
```

</div>
   
   7. Partieron entre la medianoche y las 6 a.m. (incluyente)

<div class="solucion">
<h3>Solución</h3>


```r
filter(vuelos,horario_salida %in% c(1:600) | horario_salida == 2400 )
#> # A tibble: 9,373 × 19
#>    anio   mes   dia horario_salida salida_programada atraso_salida
#>   <int> <int> <int>          <int>             <int>         <dbl>
#> 1  2013     1     1            517               515             2
#> 2  2013     1     1            533               529             4
#> 3  2013     1     1            542               540             2
#> 4  2013     1     1            544               545            -1
#> 5  2013     1     1            554               600            -6
#> 6  2013     1     1            554               558            -4
#> # … with 9,367 more rows, and 13 more variables: horario_llegada <int>,
#> #   llegada_programada <int>, atraso_llegada <dbl>, aerolinea <chr>,
#> #   vuelo <int>, codigo_cola <chr>, origen <chr>, destino <chr>,
#> #   tiempo_vuelo <dbl>, distancia <dbl>, hora <dbl>, minuto <dbl>,
#> #   fecha_hora <dttm>
```
</div>

2.  Otra función de **dplyr** útil para usar filtros es `between()`. ¿Qué hace? ¿Puedes usarlo para simplificar el código necesario para responder a los desafíos anteriores?

<div class="solucion">
<h3>Solución</h3>

Esta función del paquete __dplyr__ permite abreviar la escritura de código que tiene esta estructura `x >= derecha & x <= izquierda` por `between(x, derecha, izquierda)`.

Podemos reescribir el código para encontrar los vuelos que partieron en el invierno del hemisferio sur así:


```r
filter(vuelos, between(mes, 7, 9))
#> # A tibble: 86,326 × 19
#>    anio   mes   dia horario_salida salida_programada atraso_salida
#>   <int> <int> <int>          <int>             <int>         <dbl>
#> 1  2013     7     1              1              2029           212
#> 2  2013     7     1              2              2359             3
#> 3  2013     7     1             29              2245           104
#> 4  2013     7     1             43              2130           193
#> 5  2013     7     1             44              2150           174
#> 6  2013     7     1             46              2051           235
#> # … with 86,320 more rows, and 13 more variables: horario_llegada <int>,
#> #   llegada_programada <int>, atraso_llegada <dbl>, aerolinea <chr>,
#> #   vuelo <int>, codigo_cola <chr>, origen <chr>, destino <chr>,
#> #   tiempo_vuelo <dbl>, distancia <dbl>, hora <dbl>, minuto <dbl>,
#> #   fecha_hora <dttm>
```

</div>


3. ¿Cuántos vuelos tienen datos faltantes de `horario_salida`? ¿Qué otras variables tienen valores faltantes? ¿Qué representan estas filas?

<div class="solucion">
<h3>Solución</h3>

Podemos buscar datos faltantes con la función `is.na`. 


```r
filter(vuelos, is.na(horario_salida))
#> # A tibble: 8,255 × 19
#>    anio   mes   dia horario_salida salida_programada atraso_salida
#>   <int> <int> <int>          <int>             <int>         <dbl>
#> 1  2013     1     1             NA              1630            NA
#> 2  2013     1     1             NA              1935            NA
#> 3  2013     1     1             NA              1500            NA
#> 4  2013     1     1             NA               600            NA
#> 5  2013     1     2             NA              1540            NA
#> 6  2013     1     2             NA              1620            NA
#> # … with 8,249 more rows, and 13 more variables: horario_llegada <int>,
#> #   llegada_programada <int>, atraso_llegada <dbl>, aerolinea <chr>,
#> #   vuelo <int>, codigo_cola <chr>, origen <chr>, destino <chr>,
#> #   tiempo_vuelo <dbl>, distancia <dbl>, hora <dbl>, minuto <dbl>,
#> #   fecha_hora <dttm>
```
…
## 5.3 Reordenar las filas con `arrange()` {-#arrange} 

### 5.3.1 Ejercicios{-#ejercicios-531} 


1. ¿Cómo podrías usar `arrange()` para ordenar todos los valores faltantes al comienzo? (Sugerencia: usa `is.na()`).

<div class="solucion">
<h3>Solución</h3>


```r
arrange(vuelos,desc(is.na(tiempo_vuelo)))
#> # A tibble: 336,776 × 19
#>    anio   mes   dia horario_salida salida_programada atraso_salida
#>   <int> <int> <int>          <int>             <int>         <dbl>
#> 1  2013     1     1           1525              1530            -5
#> 2  2013     1     1           1528              1459            29
#> 3  2013     1     1           1740              1745            -5
#> 4  2013     1     1           1807              1738            29
#> 5  2013     1     1           1939              1840            59
#> 6  2013     1     1           1952              1930            22
#> # … with 336,770 more rows, and 13 more variables: horario_llegada <int>,
#> #   llegada_programada <int>, atraso_llegada <dbl>, aerolinea <chr>,
#> #   vuelo <int>, codigo_cola <chr>, origen <chr>, destino <chr>,
#> #   tiempo_vuelo <dbl>, distancia <dbl>, hora <dbl>, minuto <dbl>,
#> #   fecha_hora <dttm>
```

Se usa la variable `tiempo_vuelo` porque es la que contiene mayor número de NA´s. 

</div>

2. Ordena `vuelos` para encontrar los vuelos más retrasados. Encuentra los vuelos que salieron más temprano.

<div class="solucion">
<h3>Solución</h3>

Vuelos que salieron con más retraso

```r
arrange(vuelos, desc(atraso_salida))
#> # A tibble: 336,776 × 19
#>    anio   mes   dia horario_salida salida_programada atraso_salida
#>   <int> <int> <int>          <int>             <int>         <dbl>
#> 1  2013     1     9            641               900          1301
#> 2  2013     6    15           1432              1935          1137
#> 3  2013     1    10           1121              1635          1126
#> 4  2013     9    20           1139              1845          1014
#> 5  2013     7    22            845              1600          1005
#> 6  2013     4    10           1100              1900           960
#> # … with 336,770 more rows, and 13 more variables: horario_llegada <int>,
#> #   llegada_programada <int>, atraso_llegada <dbl>, aerolinea <chr>,
#> #   vuelo <int>, codigo_cola <chr>, origen <chr>, destino <chr>,
#> #   tiempo_vuelo <dbl>, distancia <dbl>, hora <dbl>, minuto <dbl>,
#> #   fecha_hora <dttm>
```

Vuelos que salieron más temprano

```r
arrange(vuelos, atraso_salida)
#> # A tibble: 336,776 × 19
#>    anio   mes   dia horario_salida salida_programada atraso_salida
#>   <int> <int> <int>          <int>             <int>         <dbl>
#> 1  2013    12     7           2040              2123           -43
#> 2  2013     2     3           2022              2055           -33
#> 3  2013    11    10           1408              1440           -32
#> 4  2013     1    11           1900              1930           -30
#> 5  2013     1    29           1703              1730           -27
#> 6  2013     8     9            729               755           -26
#> # … with 336,770 more rows, and 13 more variables: horario_llegada <int>,
#> #   llegada_programada <int>, atraso_llegada <dbl>, aerolinea <chr>,
#> #   vuelo <int>, codigo_cola <chr>, origen <chr>, destino <chr>,
#> #   tiempo_vuelo <dbl>, distancia <dbl>, hora <dbl>, minuto <dbl>,
#> #   fecha_hora <dttm>
```
</div>

3. Ordena `vuelos` para encontrar los vuelos más rápidos.

<div class="solucion">
<h3>Solución</h3>

Si se considera que la velocidad es igual a `distancia`/`tiempo_vuelo` (distancia recorrida por minuto).

Los datos ordenados de forma descendente nos dará como resultado los vuelos más rápidos primero.


```r
arrange(vuelos,desc(distancia/tiempo_vuelo))
#> # A tibble: 336,776 × 19
#>    anio   mes   dia horario_salida salida_programada atraso_salida
#>   <int> <int> <int>          <int>             <int>         <dbl>
#> 1  2013     5    25           1709              1700             9
#> 2  2013     7     2           1558              1513            45
#> 3  2013     5    13           2040              2025            15
#> 4  2013     3    23           1914              1910             4
#> 5  2013     1    12           1559              1600            -1
#> 6  2013    11    17            650               655            -5
#> # … with 336,770 more rows, and 13 more variables: horario_llegada <int>,
#> #   llegada_programada <int>, atraso_llegada <dbl>, aerolinea <chr>,
#> #   vuelo <int>, codigo_cola <chr>, origen <chr>, destino <chr>,
#> #   tiempo_vuelo <dbl>, distancia <dbl>, hora <dbl>, minuto <dbl>,
#> #   fecha_hora <dttm>
```

</div>

4. ¿Cuáles vuelos viajaron más lejos? ¿Cuál viajó menos cerca?

<div class="solucion">
<h3>Solución</h3>

Vuelos que viajaron más lejos (considerando la distancia en millas entre aeropuertos):

```r
arrange(vuelos,desc(distancia))
#> # A tibble: 336,776 × 19
#>    anio   mes   dia horario_salida salida_programada atraso_salida
#>   <int> <int> <int>          <int>             <int>         <dbl>
#> 1  2013     1     1            857               900            -3
#> 2  2013     1     2            909               900             9
#> 3  2013     1     3            914               900            14
#> 4  2013     1     4            900               900             0
#> 5  2013     1     5            858               900            -2
#> 6  2013     1     6           1019               900            79
#> # … with 336,770 more rows, and 13 more variables: horario_llegada <int>,
#> #   llegada_programada <int>, atraso_llegada <dbl>, aerolinea <chr>,
#> #   vuelo <int>, codigo_cola <chr>, origen <chr>, destino <chr>,
#> #   tiempo_vuelo <dbl>, distancia <dbl>, hora <dbl>, minuto <dbl>,
#> #   fecha_hora <dttm>
```

Vuelos que viajaron más cerca (considerando la distancia en millas entre aeropuertos):

```r
arrange(vuelos,distancia)
#> # A tibble: 336,776 × 19
#>    anio   mes   dia horario_salida salida_programada atraso_salida
#>   <int> <int> <int>          <int>             <int>         <dbl>
#> 1  2013     7    27             NA               106            NA
#> 2  2013     1     3           2127              2129            -2
#> 3  2013     1     4           1240              1200            40
#> 4  2013     1     4           1829              1615           134
#> 5  2013     1     4           2128              2129            -1
#> 6  2013     1     5           1155              1200            -5
#> # … with 336,770 more rows, and 13 more variables: horario_llegada <int>,
#> #   llegada_programada <int>, atraso_llegada <dbl>, aerolinea <chr>,
#> #   vuelo <int>, codigo_cola <chr>, origen <chr>, destino <chr>,
#> #   tiempo_vuelo <dbl>, distancia <dbl>, hora <dbl>, minuto <dbl>,
#> #   fecha_hora <dttm>
```
…
## 5.4 Seleccionar columnas con `select()` {-#select}


### 5.4.1 Ejercicios{-#ejercicios-541} 

1. Haz una lluvia de ideas de tantas maneras como sea posible para seleccionar `horario_salida`,` atraso_salida`,`horario_llegada`, y` atraso_llegada` de `vuelos`.

<div class="solucion">
<h3>Solución</h3>

Una primera opción sería seleccionaras por su nombre:

```r
select(vuelos, horario_salida, atraso_salida, horario_llegada, atraso_llegada)
#> # A tibble: 336,776 × 4
#>   horario_salida atraso_salida horario_llegada atraso_llegada
#>            <int>         <dbl>           <int>          <dbl>
#> 1            517             2             830             11
#> 2            533             4             850             20
#> 3            542             2             923             33
#> 4            544            -1            1004            -18
#> 5            554            -6             812            -25
#> 6            554            -4             740             12
#> # … with 336,770 more rows
```

Otra forma es seleccionando las variables que empiezan con "horario" y "atraso" con la función `starts_with()` ("empieza con") del paquete __dplyr__:


```r
select(vuelos, starts_with("horario"), starts_with("atraso"))
#> # A tibble: 336,776 × 4
#>   horario_salida horario_llegada atraso_salida atraso_llegada
#>            <int>           <int>         <dbl>          <dbl>
#> 1            517             830             2             11
#> 2            533             850             4             20
#> 3            542             923             2             33
#> 4            544            1004            -1            -18
#> 5            554             812            -6            -25
#> 6            554             740            -4             12
#> # … with 336,770 more rows
```
…
