…
Necesitas combinar `aeropuertos` con `vuelos` ya que el dataset `aeropuertos` 
con tiene las coordenadas de los aeropuertos. Puedes unir las tablas por medio
de la variable `codigo_aeropuerto` en `aeropuertos` y `origen` y `destino` en
`vuelos`.


```r
vuelos %>%
  left_join(aeropuertos, by = c("origen" = "codigo_aeropuerto",
                                "destino" = "codigo_aeropuerto"))
```

```
## # A tibble: 336,776 x 26
##     anio   mes   dia horario_salida salida_programa… atraso_salida
##    <int> <int> <int>          <int>            <int>         <dbl>
##  1  2013     1     1            517              515             2
##  2  2013     1     1            533              529             4
##  3  2013     1     1            542              540             2
##  4  2013     1     1            544              545            -1
##  5  2013     1     1            554              600            -6
##  6  2013     1     1            554              558            -4
##  7  2013     1     1            555              600            -5
##  8  2013     1     1            557              600            -3
##  9  2013     1     1            557              600            -3
## 10  2013     1     1            558              600            -2
## # … with 336,766 more rows, and 20 more variables: horario_llegada <int>,
## #   llegada_programada <int>, atraso_llegada <dbl>, aerolinea <chr>,
## #   vuelo <int>, codigo_cola <chr>, origen <chr>, destino <chr>,
## #   tiempo_vuelo <dbl>, distancia <dbl>, hora <dbl>, minuto <dbl>,
## #   fecha_hora <dttm>, nombre <chr>, latitud <dbl>, longitud <dbl>,
## #   altura <int>, zona_horaria <dbl>, horario_verano <chr>,
## #   zona_horaria_iana <chr>
```
…
1. Agrega una llave sustituta a `vuelos`.

<div class="solucion">
<h3>Solución</h3>


```r
vuelos %>%
  mutate(id = row_number(anio)) %>%
  select(id, everything())
```

```
## # A tibble: 336,776 x 20
##       id  anio   mes   dia horario_salida salida_programa… atraso_salida
##    <int> <int> <int> <int>          <int>            <int>         <dbl>
##  1     1  2013     1     1            517              515             2
##  2     2  2013     1     1            533              529             4
##  3     3  2013     1     1            542              540             2
##  4     4  2013     1     1            544              545            -1
##  5     5  2013     1     1            554              600            -6
##  6     6  2013     1     1            554              558            -4
##  7     7  2013     1     1            555              600            -5
##  8     8  2013     1     1            557              600            -3
##  9     9  2013     1     1            557              600            -3
## 10    10  2013     1     1            558              600            -2
## # … with 336,766 more rows, and 13 more variables: horario_llegada <int>,
## #   llegada_programada <int>, atraso_llegada <dbl>, aerolinea <chr>,
## #   vuelo <int>, codigo_cola <chr>, origen <chr>, destino <chr>,
## #   tiempo_vuelo <dbl>, distancia <dbl>, hora <dbl>, minuto <dbl>,
## #   fecha_hora <dttm>
```
…
vuelos %>%
  select(anio:dia, hora, origen, destino) %>%
  left_join(
    ubicacion_aeropuertos,
    by = c("origen" = "codigo_aeropuerto")
  ) %>%
  left_join(
    ubicacion_aeropuertos,
    by = c("destino" = "codigo_aeropuerto")
  )
```

```
## # A tibble: 336,776 x 10
##     anio   mes   dia  hora origen destino latitud.x longitud.x latitud.y
##    <int> <int> <int> <dbl> <chr>  <chr>       <dbl>      <dbl>     <dbl>
##  1  2013     1     1     5 EWR    IAH          40.7      -74.2      30.0
##  2  2013     1     1     5 LGA    IAH          40.8      -73.9      30.0
##  3  2013     1     1     5 JFK    MIA          40.6      -73.8      25.8
##  4  2013     1     1     5 JFK    BQN          40.6      -73.8      NA  
##  5  2013     1     1     6 LGA    ATL          40.8      -73.9      33.6
##  6  2013     1     1     5 EWR    ORD          40.7      -74.2      42.0
##  7  2013     1     1     6 EWR    FLL          40.7      -74.2      26.1
##  8  2013     1     1     6 LGA    IAD          40.8      -73.9      38.9
##  9  2013     1     1     6 JFK    MCO          40.6      -73.8      28.4
## 10  2013     1     1     6 LGA    ORD          40.8      -73.9      42.0
## # … with 336,766 more rows, and 1 more variable: longitud.y <dbl>
```
…
```
## # A tibble: 336,776 x 10
##     anio   mes   dia  hora origen destino latitud_origen longitud_origen
##    <int> <int> <int> <dbl> <chr>  <chr>            <dbl>           <dbl>
##  1  2013     1     1     5 EWR    IAH               40.7           -74.2
##  2  2013     1     1     5 LGA    IAH               40.8           -73.9
##  3  2013     1     1     5 JFK    MIA               40.6           -73.8
##  4  2013     1     1     5 JFK    BQN               40.6           -73.8
##  5  2013     1     1     6 LGA    ATL               40.8           -73.9
##  6  2013     1     1     5 EWR    ORD               40.7           -74.2
##  7  2013     1     1     6 EWR    FLL               40.7           -74.2
##  8  2013     1     1     6 LGA    IAD               40.8           -73.9
##  9  2013     1     1     6 JFK    MCO               40.6           -73.8
## 10  2013     1     1     6 LGA    ORD               40.8           -73.9
## # … with 336,766 more rows, and 2 more variables: latitud_destino <dbl>,
## #   longitud_destino <dbl>
```
…
