…
```r
df <- palabras %>% 
    tibble(palabra = .) %>% 
    mutate(largo = str_length(palabra)) %>% 
    mutate(vocales = str_count(palabra, "[aáeéiíoóuúü]")) %>% 
    mutate(prop_vocales = vocales / largo)
```

Ahora podemos responder las preguntas. Las palabras con más vocales en este set de datos tienen 6 en total. Son 15:


```r
top_n(df, 1, vocales)
#> # A tibble: 15 × 4
#>   palabra         largo vocales prop_vocales
#>   <chr>           <int>   <int>        <dbl>
#> 1 administración     14       6        0.429
#> 2 asociación         10       6        0.6  
#> 3 autoridades        11       6        0.545
#> 4 características    15       6        0.4  
#> 5 comunicación       12       6        0.5  
#> 6 conocimiento       12       6        0.5  
#> # … with 9 more rows
```
…
tibble(oracion = oraciones) %>% 
    tidyr::extract(
        oracion, c("numero", "palabra"), numero_palabra,
        remove = FALSE
    ) %>% 
    filter(!is.na(palabra)) # solo ver las filas con resultados
#> # A tibble: 10 × 3
#>   oracion                                                   numero palabra   
#>   <chr>                                                     <chr>  <chr>     
#> 1 Nueve hombres fueron contratados para excavar las ruinas. dos    para      
#> 2 El médico lo curó con estas dos pastillas.                dos    pastillas.
#> 3 Una grulla azul es una ave zancuda y alta.                una    ave       
#> 4 La lámpara brillaba con una llama verde y continua.       una    llama     
#> 5 El lazo púrpura tenía diez años.                          diez   años.     
#> 6 Marca el lugar con un cartel pintado de rojo.             un     cartel    
#> # … with 4 more rows
```

Para definir lo que es una palabra utilizamos la misma heurística propuesta en esta sección del libro, es decir, todo lo que no es un espacio. Sin embargo, esto hace que se extraigan también los puntos. Una manera de evitarlo es utilizar `\\w`:


```r
numero_palabra2 <- "(una*o*|dos|tres|cuatro|cinco|seis|siete|ocho|nueve|diez) (\\w+)"

tibble(oracion = oraciones) %>% 
    tidyr::extract(
        oracion, c("numero", "palabra"), numero_palabra2,
        remove = FALSE
    ) %>% 
    filter(!is.na(palabra)) # solo ver las filas con resultados
#> # A tibble: 10 × 3
#>   oracion                                                   numero palabra  
#>   <chr>                                                     <chr>  <chr>    
#> 1 Nueve hombres fueron contratados para excavar las ruinas. dos    para     
#> 2 El médico lo curó con estas dos pastillas.                dos    pastillas
#> 3 Una grulla azul es una ave zancuda y alta.                una    ave      
#> 4 La lámpara brillaba con una llama verde y continua.       una    llama    
#> 5 El lazo púrpura tenía diez años.                          diez   a        
#> 6 Marca el lugar con un cartel pintado de rojo.             un     cartel   
#> # … with 4 more rows
```
…
