…
grid <- sim1 %>%
  data_grid(x)
```

La función `add_predictions()` permite incluir un modelo a la vez. Para agregar
dos modelos se debe encadenar con el operador `%>%`.


```r
grid %>%
  add_predictions(sim1_mod, var = "pred_lm") %>%
  add_predictions(sim1_loess, var = "pred_loess")
#> # A tibble: 10 x 3
#>       x pred_lm pred_loess
#>   <int>   <dbl>      <dbl>
#> 1     1    6.27       7.05
#> 2     2    8.32       8.76
#> 3     3   10.4       10.5 
#> 4     4   12.4       12.1 
#> 5     5   14.5       14.1 
#> 6     6   16.5       15.9 
#> # … with 4 more rows
```

La función `gather_predictions()` incorpora predicciones de múltiples modelos
por medio de agrupar los resultados e incluir una columna con el nombre del
modelo.


```r
grid %>%
  gather_predictions(sim1_mod, sim1_loess)
#> # A tibble: 20 x 3
#>   model        x  pred
#>   <chr>    <int> <dbl>
#> 1 sim1_mod     1  6.27
#> 2 sim1_mod     2  8.32
#> 3 sim1_mod     3 10.4 
#> 4 sim1_mod     4 12.4 
#> 5 sim1_mod     5 14.5 
#> 6 sim1_mod     6 16.5 
#> # … with 14 more rows
```

La función `spread_predictions()` incorpora predicciones de múltiples modelos
agregando múltiples columnas (de acuerdo al nombre de cada modelo) que contienen
las predicciones respectivas.


```r
grid %>%
  spread_predictions(sim1_mod, sim1_loess)
#> # A tibble: 10 x 3
#>       x sim1_mod sim1_loess
#>   <int>    <dbl>      <dbl>
#> 1     1     6.27       7.05
#> 2     2     8.32       8.76
#> 3     3    10.4       10.5 
#> 4     4    12.4       12.1 
#> 5     5    14.5       14.1 
#> 6     6    16.5       15.9 
#> # … with 4 more rows
```

La función `spread_predictions()` es similar a correr `add_predictions()` para
cada modelo que se quiere incorporar y es equivalente a correr `spread()` luego
de `gather_predictions()`.


```r
grid %>%
  gather_predictions(sim1_mod, sim1_loess) %>%
  spread(model, pred)
#> # A tibble: 10 x 3
#>       x sim1_loess sim1_mod
#>   <int>      <dbl>    <dbl>
#> 1     1       7.05     6.27
#> 2     2       8.76     8.32
#> 3     3      10.5     10.4 
#> 4     4      12.1     12.4 
#> 5     5      14.1     14.5 
#> 6     6      15.9     16.5 
#> # … with 4 more rows
```
…
2. Usa `model_matrix()` para explorar las ecuaciones generadas por los modelos ajustados a `sim3` y
 `sim4`. ¿Por qué `*` es un atajo para la interacción?
 
<div class="solucion">
<h3>Solución</h3>

El caso `x1 * x2` cuando `x2` es una variable categórica produce las variables
binarias `x2b`, `x2c` y `x2d` y las variables continuas `x1:x2b`, `x1:x2c` y
`x1:x2d` que son el producto de `x1` y `x2*`.


```r
x3 <- model_matrix(y ~ x1 * x2, data = sim3)
x3
#> # A tibble: 120 x 8
#>   `(Intercept)`    x1   x2b   x2c   x2d `x1:x2b` `x1:x2c` `x1:x2d`
#>           <dbl> <dbl> <dbl> <dbl> <dbl>    <dbl>    <dbl>    <dbl>
#> 1             1     1     0     0     0        0        0        0
#> 2             1     1     0     0     0        0        0        0
#> 3             1     1     0     0     0        0        0        0
#> 4             1     1     1     0     0        1        0        0
#> 5             1     1     1     0     0        1        0        0
#> 6             1     1     1     0     0        1        0        0
#> # … with 114 more rows
```
…
```r
all(x3[["x1:x2c"]] == (x3[["x1"]] * x3[["x2c"]]))
#> [1] TRUE
all(x3[["x1:x2d"]] == (x3[["x1"]] * x3[["x2d"]]))
#> [1] TRUE
```

Para `x1 * x2` cuando `x1` y `x2` son continuas, `model_matrix()` creas las
variables `x1`, `x2` y `x1:x2`.


```r
x4 <- model_matrix(y ~ x1 * x2, data = sim4)
x4
#> # A tibble: 300 x 4
#>   `(Intercept)`    x1     x2 `x1:x2`
#>           <dbl> <dbl>  <dbl>   <dbl>
#> 1             1    -1 -1       1    
#> 2             1    -1 -1       1    
#> 3             1    -1 -1       1    
#> 4             1    -1 -0.778   0.778
#> 5             1    -1 -0.778   0.778
#> 6             1    -1 -0.778   0.778
#> # … with 294 more rows
```
…
```r
model_matrix_mod1 <- function(.data) {
  mutate(.data,
    x2b = as.numeric(x2 == "b"),
    x2c = as.numeric(x2 == "c"),
    x2d = as.numeric(x2 == "d"),
    `(Intercept)` = 1
  ) %>%
    select(`(Intercept)`, x1, x2b, x2c, x2d)
}

model_matrix_mod1(sim3)
#> # A tibble: 120 x 5
#>   `(Intercept)`    x1   x2b   x2c   x2d
#>           <dbl> <int> <dbl> <dbl> <dbl>
#> 1             1     1     0     0     0
#> 2             1     1     0     0     0
#> 3             1     1     0     0     0
#> 4             1     1     1     0     0
#> 5             1     1     1     0     0
#> 6             1     1     1     0     0
#> # … with 114 more rows
```
…
  # generamos una lista de las variables que se mantienen
  x2_variables <- str_c("x2", lvls)
  
  # agregamos el intercepto
  .data[["(Intercept)"]] <- 1
  
  # mantenemos las variables binarias x1 y x2
  select(.data, `(Intercept)`, x1, one_of(x2_variables))
}

model_matrix_mod1b(sim3)
#> # A tibble: 120 x 5
#>   `(Intercept)`    x1   x2b   x2c   x2d
#>           <dbl> <int> <dbl> <dbl> <dbl>
#> 1             1     1     0     0     0
#> 2             1     1     0     0     0
#> 3             1     1     0     0     0
#> 4             1     1     1     0     0
#> 5             1     1     1     0     0
#> 6             1     1     1     0     0
#> # … with 114 more rows
```
…
model_matrix_mod2(sim3)
#> # A tibble: 120 x 8
#>   `(Intercept)`    x1   x2b   x2c   x2d `x1:x2b` `x1:x2c` `x1:x2d`
#>           <dbl> <int> <dbl> <dbl> <dbl>    <dbl>    <dbl>    <dbl>
#> 1             1     1     0     0     0        0        0        0
#> 2             1     1     0     0     0        0        0        0
#> 3             1     1     0     0     0        0        0        0
#> 4             1     1     1     0     0        1        0        0
#> 5             1     1     1     0     0        1        0        0
#> 6             1     1     1     0     0        1        0        0
#> # … with 114 more rows
```
…
  # tomamos las columnas que contienen "x2"
  x2cols <- str_subset(colnames(out), "^x2")
  
  # creamos las variables de interacción
  for (varname in x2cols) {
    newvar <- str_c("x1:", varname)
    out[[newvar]] <- out$x1 * out[[varname]]
  }
  
  out
}

model_matrix_mod2b(sim3)
#> # A tibble: 120 x 8
#>   `(Intercept)`    x1   x2b   x2c   x2d `x1:x2b` `x1:x2c` `x1:x2d`
#>           <dbl> <int> <dbl> <dbl> <dbl>    <dbl>    <dbl>    <dbl>
#> 1             1     1     0     0     0        0        0        0
#> 2             1     1     0     0     0        0        0        0
#> 3             1     1     0     0     0        0        0        0
#> 4             1     1     1     0     0        1        0        0
#> 5             1     1     1     0     0        1        0        0
#> 6             1     1     1     0     0        1        0        0
#> # … with 114 more rows
```
…
