…
```r
por_pais <- por_pais %>%
  mutate(
    residuo = map2(data, modelo, add_residuals)
  )

por_pais
```

```
## # A tibble: 142 x 5
##    pais       continente data              modelo residuo          
##    <fct>      <fct>      <list>            <list> <list>           
##  1 Afganistán Asia       <tibble [12 x 4]> <lm>   <tibble [12 x 5]>
##  2 Albania    Europa     <tibble [12 x 4]> <lm>   <tibble [12 x 5]>
##  3 Argelia    África     <tibble [12 x 4]> <lm>   <tibble [12 x 5]>
##  4 Angola     África     <tibble [12 x 4]> <lm>   <tibble [12 x 5]>
##  5 Argentina  Américas   <tibble [12 x 4]> <lm>   <tibble [12 x 5]>
##  6 Australia  Oceanía    <tibble [12 x 4]> <lm>   <tibble [12 x 5]>
##  7 Austria    Europa     <tibble [12 x 4]> <lm>   <tibble [12 x 5]>
##  8 Baréin     Asia       <tibble [12 x 4]> <lm>   <tibble [12 x 5]>
##  9 Bangladesh Asia       <tibble [12 x 4]> <lm>   <tibble [12 x 5]>
## 10 Bélgica    Europa     <tibble [12 x 4]> <lm>   <tibble [12 x 5]>
## # ... with 132 more rows
```
…
