15 Factores | R para Ciencia de Datos: Soluciones de los ejercicios
…
¿A qué religion se aplica cada denominacion? ¿Cómo puedes encontrarlo con una tabla? ¿Cómo lo puedes descubrir con una visualización?

Solución

Una forma de hacerlo sería contar las combinaciones de religión y denominación, lo que nos entregaría una tabla en la que podríamos ver cada cruce (por ejemplo, con encuesta %>% count(religion, denominacion)). Sin embargo, antes de hacer eso sería bueno eliminar los niveles que corresponden a una denominación: “Sin respuesta”, “No sabe”, “No aplica”, “No denominacional”:

encuesta %>% 
  filter(!denominacion %in% c("Sin respuesta", "No sabe", "No aplica", "No denominacional")) %>% 
  count(religion, denominacion)
#> # A tibble: 26 × 3
#>   religion    denominacion                        n
#>   <fct>       <fct>                           <int>
#> 1 Protestante Otra                             2534
#> 2 Protestante Episcopal                         397
#> 3 Protestante Presbiteriana, no sabe cuál       244
#> 4 Protestante Presbiteriana, fusionadas          67
#> 5 Protestante Otra presbiteriana                 47
#> 6 Protestante Unión presbiteriana de iglesias   110
#> # … with 20 more rows
…
