19 Modelos: conceptos básicos | R para Ciencia de Datos: Soluciones de los ejercicios
…
Usa model_matrix() para explorar las ecuaciones generadas por los modelos ajustados a sim3 y
sim4. ¿Por qué * es un atajo para la interacción?

Solución

El caso x1 * x2 cuando x2 es una variable categórica produce las variables
binarias x2b, x2c y x2d y las variables continuas x1:x2b, x1:x2c y
x1:x2d que son el producto de x1 y x2*.

x3 <- model_matrix(y ~ x1 * x2, data = sim3)
x3

## # A tibble: 120 x 8
##    `(Intercept)`    x1   x2b   x2c   x2d `x1:x2b` `x1:x2c` `x1:x2d`
##            <dbl> <dbl> <dbl> <dbl> <dbl>    <dbl>    <dbl>    <dbl>
##  1             1     1     0     0     0        0        0        0
##  2             1     1     0     0     0        0        0        0
##  3             1     1     0     0     0        0        0        0
##  4             1     1     1     0     0        1        0        0
##  5             1     1     1     0     0        1        0        0
##  6             1     1     1     0     0        1        0        0
##  7             1     1     0     1     0        0        1        0
##  8             1     1     0     1     0        0        1        0
##  9             1     1     0     1     0        0        1        0
## 10             1     1     0     0     1        0        0        1
## # … with 110 more rows
…
all(x3[["x1:x2c"]] == (x3[["x1"]] * x3[["x2c"]]))

## [1] TRUE

all(x3[["x1:x2d"]] == (x3[["x1"]] * x3[["x2d"]]))

## [1] TRUE

Para x1 * x2 cuando x1 y x2 son continuas, model_matrix() creas las
variables x1, x2 y x1:x2.

x4 <- model_matrix(y ~ x1 * x2, data = sim4)
x4

## # A tibble: 300 x 4
##    `(Intercept)`    x1     x2 `x1:x2`
##            <dbl> <dbl>  <dbl>   <dbl>
##  1             1    -1 -1       1    
##  2             1    -1 -1       1    
##  3             1    -1 -1       1    
##  4             1    -1 -0.778   0.778
##  5             1    -1 -0.778   0.778
##  6             1    -1 -0.778   0.778
##  7             1    -1 -0.556   0.556
##  8             1    -1 -0.556   0.556
##  9             1    -1 -0.556   0.556
## 10             1    -1 -0.333   0.333
## # … with 290 more rows
…
model_matrix_mod1 <- function(.data) {
  mutate(.data,
    x2b = as.numeric(x2 == "b"),
    x2c = as.numeric(x2 == "c"),
    x2d = as.numeric(x2 == "d"),
    `(Intercept)` = 1
  ) %>%
    select(`(Intercept)`, x1, x2b, x2c, x2d)
}

model_matrix_mod1(sim3)

## # A tibble: 120 x 5
##    `(Intercept)`    x1   x2b   x2c   x2d
##            <dbl> <int> <dbl> <dbl> <dbl>
##  1             1     1     0     0     0
##  2             1     1     0     0     0
##  3             1     1     0     0     0
##  4             1     1     1     0     0
##  5             1     1     1     0     0
##  6             1     1     1     0     0
##  7             1     1     0     1     0
##  8             1     1     0     1     0
##  9             1     1     0     1     0
## 10             1     1     0     0     1
## # … with 110 more rows
…
  # generamos una lista de las variables que se mantienen
  x2_variables <- str_c("x2", lvls)
  
  # agregamos el intercepto
  .data[["(Intercept)"]] <- 1
  
  # mantenemos las variables binarias x1 y x2
  select(.data, `(Intercept)`, x1, one_of(x2_variables))
}

model_matrix_mod1b(sim3)

## # A tibble: 120 x 5
##    `(Intercept)`    x1   x2b   x2c   x2d
##            <dbl> <int> <dbl> <dbl> <dbl>
##  1             1     1     0     0     0
##  2             1     1     0     0     0
##  3             1     1     0     0     0
##  4             1     1     1     0     0
##  5             1     1     1     0     0
##  6             1     1     1     0     0
##  7             1     1     0     1     0
##  8             1     1     0     1     0
##  9             1     1     0     1     0
## 10             1     1     0     0     1
## # … with 110 more rows
…
model_matrix_mod2(sim3)

## # A tibble: 120 x 8
##    `(Intercept)`    x1   x2b   x2c   x2d `x1:x2b` `x1:x2c` `x1:x2d`
##            <dbl> <int> <dbl> <dbl> <dbl>    <dbl>    <dbl>    <dbl>
##  1             1     1     0     0     0        0        0        0
##  2             1     1     0     0     0        0        0        0
##  3             1     1     0     0     0        0        0        0
##  4             1     1     1     0     0        1        0        0
##  5             1     1     1     0     0        1        0        0
##  6             1     1     1     0     0        1        0        0
##  7             1     1     0     1     0        0        1        0
##  8             1     1     0     1     0        0        1        0
##  9             1     1     0     1     0        0        1        0
## 10             1     1     0     0     1        0        0        1
## # … with 110 more rows
…
  # tomamos las columnas que contienen "x2"
  x2cols <- str_subset(colnames(out), "^x2")
  
  # creamos las variables de interacción
  for (varname in x2cols) {
    newvar <- str_c("x1:", varname)
    out[[newvar]] <- out$x1 * out[[varname]]
  }
  
  out
}

model_matrix_mod2b(sim3)

## # A tibble: 120 x 8
##    `(Intercept)`    x1   x2b   x2c   x2d `x1:x2b` `x1:x2c` `x1:x2d`
##            <dbl> <int> <dbl> <dbl> <dbl>    <dbl>    <dbl>    <dbl>
##  1             1     1     0     0     0        0        0        0
##  2             1     1     0     0     0        0        0        0
##  3             1     1     0     0     0        0        0        0
##  4             1     1     1     0     0        1        0        0
##  5             1     1     1     0     0        1        0        0
##  6             1     1     1     0     0        1        0        0
##  7             1     1     0     1     0        0        1        0
##  8             1     1     0     1     0        0        1        0
##  9             1     1     0     1     0        0        1        0
## 10             1     1     0     0     1        0        0        1
## # … with 110 more rows
…
