25 Muchos modelos | R para Ciencia de Datos: Soluciones de los ejercicios
…
por_pais <- paises %>%
  group_by(pais, continente) %>%
  nest()

por_pais <- por_pais %>%
  mutate(modelo = map(data, modelo_pais_2))

por_pais <- por_pais %>%
  mutate(
    residuo = map2(data, modelo, add_residuals)
  )

por_pais
#> # A tibble: 142 × 5
#> # Groups:   pais, continente [142]
#>   pais       continente data              modelo residuo          
#>   <fct>      <fct>      <list>            <list> <list>           
#> 1 Afganistán Asia       <tibble [12 × 4]> <lm>   <tibble [12 × 5]>
#> 2 Albania    Europa     <tibble [12 × 4]> <lm>   <tibble [12 × 5]>
#> 3 Argelia    África     <tibble [12 × 4]> <lm>   <tibble [12 × 5]>
#> 4 Angola     África     <tibble [12 × 4]> <lm>   <tibble [12 × 5]>
#> 5 Argentina  Américas   <tibble [12 × 4]> <lm>   <tibble [12 × 5]>
#> 6 Australia  Oceanía    <tibble [12 × 4]> <lm>   <tibble [12 × 5]>
#> # … with 136 more rows
…
¿Qué es lo que falta en el siguiente data frame? ¿Cómo quantile() retorna
eso que falta? ¿Por qué eso no es tan útil aquí?

mtautos %>%
  group_by(cilindros) %>%
  summarise(q = list(quantile(millas))) %>%
  unnest()
#> Warning: `cols` is now required when using unnest().
#> Please use `cols = c(q)`
#> # A tibble: 15 × 2
#>   cilindros     q
#>       <dbl> <dbl>
#> 1         4  21.4
#> 2         4  22.8
#> 3         4  26  
#> 4         4  30.4
#> 5         4  33.9
#> 6         6  17.8
#> # … with 9 more rows
…
