10 Tibbles | R para Ciencia de Datos: Soluciones de los ejercicios
…
            R para Ciencia de Datos: Soluciones de los ejercicios

10 Tibbles

10.5 Ejercicios

¿Cómo puedes saber si un objeto es un tibble? (Sugerencia: imprime mtautos en la consola, que es un data frame clásico).

Solución

Los objetos que son tibbles lo indican cuando se imprimen en la consola. Por ejemplo, vuelos es un tibble:

vuelos
#> # A tibble: 336,776 x 19
#>    anio   mes   dia horario_salida salida_programa… atraso_salida
#>   <int> <int> <int>          <int>            <int>         <dbl>
#> 1  2013     1     1            517              515             2
#> 2  2013     1     1            533              529             4
#> 3  2013     1     1            542              540             2
#> 4  2013     1     1            544              545            -1
#> 5  2013     1     1            554              600            -6
#> 6  2013     1     1            554              558            -4
#> # … with 336,770 more rows, and 13 more variables: horario_llegada <int>,
#> #   llegada_programada <int>, atraso_llegada <dbl>, aerolinea <chr>,
#> #   vuelo <int>, codigo_cola <chr>, origen <chr>, destino <chr>,
#> #   tiempo_vuelo <dbl>, distancia <dbl>, hora <dbl>, minuto <dbl>,
#> #   fecha_hora <dttm>
…
Creando una nueva columna llamada 3 que sea el resultado de la división de 2 por 1.

molesto <- mutate(molesto, `3` = `2` / `1`)

Renombrando las columnas como uno, dos y tres.

rename(molesto, uno = `1`, dos = `2`, tres = `3`)
#> # A tibble: 10 x 3
#>     uno    dos  tres
#>   <int>  <dbl> <dbl>
#> 1     1  0.600 0.600
#> 2     2  4.26  2.13 
#> 3     3  3.56  1.19 
#> 4     4  7.99  2.00 
#> 5     5 10.6   2.12 
#> 6     6 13.1   2.19 
#> # … with 4 more rows
…
¿Qué opción controla cuántos nombres de columnas adicionales se muestran al pie de un tibble?

Solución

A través del argumento n_extra se puede controlar cuántas columnas adicionales mostrar.

print(vuelos, n_extra = 3)
#> # A tibble: 336,776 x 19
#>    anio   mes   dia horario_salida salida_programa… atraso_salida
#>   <int> <int> <int>          <int>            <int>         <dbl>
#> 1  2013     1     1            517              515             2
#> 2  2013     1     1            533              529             4
#> 3  2013     1     1            542              540             2
#> 4  2013     1     1            544              545            -1
#> 5  2013     1     1            554              600            -6
#> 6  2013     1     1            554              558            -4
#> # … with 336,770 more rows, and 13 more variables: horario_llegada <int>,
#> #   llegada_programada <int>, atraso_llegada <dbl>, …
…
