3 Visualización de datos | R para Ciencia de Datos: Soluciones de los ejercicios
…
Solución

Para contar el número de filas y columas podemos utilizar las funciones nrow() y ncol() del paquet dplyr:

nrow(millas)
#> [1] 234
ncol(millas)
#> [1] 11

Hay 234 filas y 11 columnas en el dataset millas.

Otra manera de ver el número de filas y de columnas es imprimiendo el objeto en la consola. Al inicio nos indicará el tipo de objeto que es y sus dimensiones en términos de filas x columnas. Algo parecido ocurrirá su utilizamos str(). Si usamos glimpse() nos indicará esta información como número de obervaciones y número de variables

millas
#> # A tibble: 234 x 11
#>   fabricante modelo cilindrada  anio cilindros transmision traccion ciudad
#>   <chr>      <chr>       <dbl> <int>     <int> <chr>       <chr>     <int>
#> 1 audi       a4            1.8  1999         4 auto(l5)    d            18
#> 2 audi       a4            1.8  1999         4 manual(m5)  d            21
#> 3 audi       a4            2    2008         4 manual(m6)  d            20
#> 4 audi       a4            2    2008         4 auto(av)    d            21
#> 5 audi       a4            2.8  1999         6 auto(l5)    d            16
#> 6 audi       a4            2.8  1999         6 manual(m5)  d            18
#> # … with 228 more rows, and 3 more variables: autopista <int>,
#> #   combustible <chr>, clase <chr>
…
Otro problema es la frecuencia de combinaciones posibles no es la misma en todos los casos.

count(millas, traccion, clase)
#> # A tibble: 12 x 3
#>   traccion clase           n
#>   <chr>    <chr>       <int>
#> 1 4        compacto       12
#> 2 4        mediano         3
#> 3 4        pickup         33
#> 4 4        subcompacto     4
#> 5 4        suv            51
#> 6 d        compacto       35
#> # … with 6 more rows
…
